^D:\GAMEDEV\VISUALSTUDIO\15.4 OPERATIONS\15.4 OPERATIONS\X64\DEBUG\15.4 OPERATIONS.OBJ
D:\GAMEDEV\VISUALSTUDIO\15.4 OPERATIONS\X64\DEBUG\15.4 OPERATIONS.EXE
D:\GAMEDEV\VISUALSTUDIO\15.4 OPERATIONS\X64\DEBUG\15.4 OPERATIONS.PDB
